{
  "name": "ektix_search_cache",
  "base": "PersistedModel",
  "idInjection": true,
  "options": {
    "validateUpsert": true
  },
  "properties": {
    "search_patern": {
      "type": "object"
    },
    "search_result": {
      "type": "object"
    }
  },
  "validations": [],
  "relations": {},
  "acls": [],
  "methods": {}
}
