{
  "name": "ektix_attribute_values",
  "base": "PersistedModel",
  "idInjection": true,
  "options": {
    "validateUpsert": true
  },
  "properties": {
    "attribute_group_value_id": {
      "type": "number",
      "required": true
    },
    "internal_id": {
      "type": "string",
      "required": false
    },
    "values": {
      "type": "object",
      "required": false
    },
    "identification": {
      "type": "object"
    }
  },
  "validations": [],
  "relations": {},
  "acls": [],
  "methods": {}
}
