{
  "name": "ektix_attribute_group_names",
  "base": "PersistedModel",
  "idInjection": true,
  "options": {
    "validateUpsert": true
  },
  "properties": {
    "code": {
      "type": "string",
      "required": true
    },
    "external_id": {
      "type": "number",
      "required": true
    },
    "created_date": {
      "type": "date"
    },
    "modified_date": {
      "type": "date"
    }
  },
  "validations": [],
  "relations": {},
  "acls": [],
  "methods": {}
}
