{
  "db": {
    "name": "db",
    "connector": "memory"
  },
  "arangodb_ektix": {
    "host": "127.0.0.1",
    "port": 8529,
    "database": "EKTix_Rules",
    "username": "root",
    "password": "123456",
    "name": "arangodb_ektix",
    "connector": "loopback-connector-arangodb"
  },
  "ektix_rules_mongodb": {
    "host": "127.0.0.1",
    "port": 8015,
    "url": "",
    "database": "ektix_rules",
    "password": "",
    "name": "ektix_rules_mongodb",
    "user": "",
    "connector": "mongodb"
  }
}
